-------------------------------------------------------------------------------
Test set: com.skills4t.javatddgitpod.CalcTest
-------------------------------------------------------------------------------
Tests run: 1, Failures: 0, Errors: 0, Skipped: 0, Time elapsed: 0.033 sec
